{
    "apiKey": "AIzaSyD9tZGY7yW4geQVwUipjCqS7UUiZVAE5kI",
    "authDomain": "orderstation-33cc9.firebaseapp.com",
    "databaseURL": "https://orderstation-33cc9.firebaseio.com",
    "projectId": "orderstation-33cc9",
    "storageBucket": "orderstation-33cc9.appspot.com",
    "messagingSenderId": "342130242310",
    "appId": "1:342130242310:web:7faaa7aba0f9abfd78a487",
    "measurementId": "G-K52QM335WZ"
}
