{
    "type": "service_account",
    "project_id": "axiomatic-spark-303003",
    "private_key_id": "d614abd2f32ee7cd395cf2914be94cf379be46d7",
    "private_key": "-----BEGIN PRIVATE KEY-----\nMIIEvQIBADANBgkqhkiG9w0BAQEFAASCBKcwggSjAgEAAoIBAQDNqt0d/yPKjO4D\nimuAdX9W/g0n1+AJ9pJLDLGGPD13RZ8jqo0pCj+UjsJE12k5etfTbRpVIcYIUS3z\nB2MX9QxySz5DjEk12kVIvze5v4d2EnvsHoRXdktcp1JSAZw1EWu3ce9A0rCdECwv\n4pd3JJcKUuZO1cllQVhM5tQfnHKIMv4uoy5Z3ja/RtedP3z72WjgP7aEQT9uGdNc\noNn2RKmVfuoMJV6VzVL+5qxWQNCLGwy/9u6SD5BST2L3PSIlZxGcZFFP9k7KzgOJ\nzCHQJ8dehvnnXcFSiarGsbEQ+VyQg10DBfp5pIsdsCq8yNV9uEaUuosuuxHheNi0\nsculse0FAgMBAAECggEAUQC+3hWjLx+ajuJxvMKKSOT+oXaw0ru+mriBIvGO8+8D\n4rRFrKhQql4fvaVp2C2925PZDzaiHJx8kH+UU9c787gW6dvS6dbx+tj1Rb9dxu84\nx6KtVRVOUUvFbG8d6vjViAbjyJAy52l7PdDs/wv2QSatdtdU3wCBmqg/W8PuiB14\nlpbPSku7XqCQ3UpoJwHPbz/i9Vo6L7UkZHfydR+1i5eF+s9vzNa2N3pILXdcPiK8\ndk17B8b+0eRxe1jyBzNNoXpOMcFddlToRgm6/ouq4p9vHpLZPLzwudR7Lh4MW+lJ\nobWabh7rfUqcwQtPvPN9UOAGXoSlW0PsDriBfbq3cQKBgQDrxiJ3jIZVitGW1WtS\n1ErqS2FbX31X1q5eSTWmi40c4scpNrLP/ALHWu6mUIlX6GPIfQlJp/tlNMGu4Hm3\nKIaboa18nh+bIqKGVBFm7vrDwnMMYm2GwAxu/5LsS3uw5m2quJFEFsvohC/0SYnC\nIekPEnhg7mNCiyE1CrHoRRAicwKBgQDfT44vCQ78mDFXLTJUlsalIbWDHsNalHN4\nUBzcP35G9m0nwhLiG0EDi69ZS5Utmh4Hl+zMQYjG21liDOaXxoOAmoLxnVU4zCDe\n+Ik/2wo/aVrNrs/b10IHdp1j1AnEANR2FFoDHQz8S3I6YY1hHLMliLYsAubTqY92\nutCO2uW8pwKBgQCQIg/wBXgZ00NNciqp+B3UHUDnGvkFObhe62Jg7e7WOcyG5Wlq\nvCT2uiAqjBFqLCbT6ZxD6u1EcXv17ER8M8oWWkA0bnXj4Mh6VepNgsrJ4ZVzfLh4\nJ+9x68tlqL905WkldK9ZcJY3DphCPrJ4e0J+dEwi9Zi4lVU3l9IqrA2xAQKBgCnY\npaNIxkctWemlLY5OZtEg/PuiMydxNCYylQXs3AP+P7w4kQNP6iH49hX8pOrTu5be\nsGAiU7g3+Ir4Men1KEVcLveJ7SNklTBTUJzntgbl/j8W6BqhPt1ZK+s+G8pgAXBT\nJf75XaqVlMU97JlrIGMDOGgM7yZw2tJ79YMfn/d3AoGAPLnQpUr3BNIC6ea1v91+\n48LoPplwpoBKKNamZUFi09ChVp4uKzZ/2p3Ulb2XwHDqzTGB5Lzlqty4COlvLKmS\nfSNXCsJcVhcAwGPv4wxxPgOc0eu7ew0SbjTItOB9g2+RcIymxZoI6J8gL4oXLLb/\n7hAfeBKB1VC0E/lkiFa9ZZM=\n-----END PRIVATE KEY-----\n",
    "client_email": "firebase-adminsdk-105ch@axiomatic-spark-303003.iam.gserviceaccount.com",
    "client_id": "107406054171618038080",
    "auth_uri": "https://accounts.google.com/o/oauth2/auth",
    "token_uri": "https://oauth2.googleapis.com/token",
    "auth_provider_x509_cert_url": "https://www.googleapis.com/oauth2/v1/certs",
    "client_x509_cert_url": "https://www.googleapis.com/robot/v1/metadata/x509/firebase-adminsdk-105ch%40axiomatic-spark-303003.iam.gserviceaccount.com"
}
